<?xml version="1.0" encoding="utf-8"?>
<!-- Generated by IcoMoon.io -->
<!DOCTYPE svg PUBLIC "-//W3C//DTD SVG 1.1//EN" "http://www.w3.org/Graphics/SVG/1.1/DTD/svg11.dtd">
<svg version="1.1" xmlns="http://www.w3.org/2000/svg" xmlns:xlink="http://www.w3.org/1999/xlink" width="16" height="16" viewBox="0 0 16 16">
<path d="M15.903 6.131l-1.124-2.67v-0.639c0-0.822-0.671-1.494-1.493-1.494h-10.572c-0.823 0-1.494 0.672-1.494 1.494v0.639l-1.123 2.67c0 0.715 0.475 1.318 1.123 1.514v5.533c0 0.822 0.671 1.494 1.494 1.494h10.572c0.822 0 1.493-0.672 1.493-1.494v-5.533c0.65-0.196 1.124-0.799 1.124-1.514zM13.286 14.072h-5.971v-5.035h-3.467v5.035h-1.134c-0.493 0-0.896-0.4-0.896-0.895v-5.472c0.8-0.070 1.428-0.734 1.439-1.551h0.002c0.014 0.863 0.715 1.559 1.58 1.559 0.848 0 1.54-0.672 1.576-1.512h0.008c0.037 0.84 0.727 1.512 1.576 1.512s1.54-0.672 1.578-1.512h0.008c0.036 0.84 0.728 1.512 1.576 1.512 0.865 0 1.566-0.695 1.58-1.559h0.002c0.012 0.816 0.64 1.48 1.439 1.551v5.473c0.001 0.494-0.403 0.894-0.896 0.894z" fill="#444444"></path>
<path d="M8.684 9.037h3.469v2.666h-3.469v-2.666z" fill="#444444"></path>
</svg>
