<?xml version="1.0" encoding="utf-8"?>
<!-- Generated by IcoMoon.io -->
<!DOCTYPE svg PUBLIC "-//W3C//DTD SVG 1.1//EN" "http://www.w3.org/Graphics/SVG/1.1/DTD/svg11.dtd">
<svg version="1.1" xmlns="http://www.w3.org/2000/svg" xmlns:xlink="http://www.w3.org/1999/xlink" width="16" height="16" viewBox="0 0 16 16">
<path d="M13.245 11.866c-0.596-0.709-1.536-1.888-2.236-3.045-1.058-1.75-1.2-3.992-1.202-4.031v0h-0.016c-0.167-1.1-0.698-2.192-1.584-3.078-2.019-2.018-5.12-2.199-6.916-0.404-1.795 1.795-1.613 4.897 0.404 6.917 1.049 1.049 2.391 1.601 3.69 1.636 0.789 0.113 2.23 0.406 3.445 1.14 1.221 0.738 2.466 1.745 3.158 2.331l2.598 2.597 1.359-1.359-2.7-2.704zM8.951 5.581l-0.087-0.086 0.085-0.084c0.002 0.058 0.002 0.113 0.002 0.17zM3.717 4.92l-0.5 0.5-0.455-0.455 0.5-0.5 0.455 0.455zM3.323 4.404l0.503-0.504 0.455 0.455-0.503 0.503-0.455-0.454zM3.8 5.003l0.477 0.477-0.5 0.501-0.477-0.478 0.5-0.5zM3.86 4.941l0.503-0.503 0.478 0.477-0.503 0.504-0.478-0.478zM5.967 4.919l-0.5 0.5-0.479-0.48 0.499-0.5 0.48 0.48zM5.547 4.379l0.479-0.478 0.479 0.479-0.478 0.478-0.48-0.479zM4.902 4.854l-0.476-0.477 0.499-0.5 0.478 0.478-0.501 0.499zM4.925 5l0.48 0.48-0.503 0.503-0.48-0.479 0.503-0.504zM5.489 5.564l0.478 0.478-0.503 0.504-0.478-0.479 0.503-0.503zM5.551 5.503l0.5-0.5 0.477 0.477-0.499 0.5-0.478-0.477zM6.111 4.942l0.478-0.478 0.478 0.478-0.478 0.479-0.478-0.479zM6.648 4.405l0.506-0.505 0.478 0.477-0.506 0.507-0.478-0.479zM6.563 4.321l-0.479-0.479 0.507-0.506 0.479 0.479-0.507 0.506zM5.999 3.757l-0.477-0.478 0.507-0.505 0.476 0.477-0.506 0.506zM5.939 3.815l-0.477 0.479-0.477-0.477 0.479-0.477 0.475 0.475zM4.902 3.734l-0.455-0.455 0.478-0.478 0.455 0.455-0.478 0.478zM4.843 3.795l-0.5 0.499-0.455-0.454 0.499-0.5 0.456 0.455zM3.805 3.757l-0.483-0.484 0.5-0.5 0.483 0.483-0.5 0.501zM3.744 3.818l-0.504 0.504-0.483-0.484 0.504-0.503 0.483 0.483zM3.181 4.382l-0.502 0.501-0.483-0.484 0.5-0.5 0.485 0.483zM2.704 5.023l0.455 0.454-0.508 0.508-0.455-0.455 0.508-0.507zM3.241 5.561l0.478 0.477-0.508 0.507-0.477-0.477 0.507-0.507zM3.803 6.122l0.481 0.48-0.508 0.508-0.48-0.481 0.507-0.507zM3.861 6.064l0.5-0.5 0.48 0.48-0.501 0.5-0.479-0.48zM4.925 6.128l0.479 0.479-0.5 0.5-0.479-0.479 0.5-0.5zM5.482 6.686l0.486 0.486-0.5 0.5-0.486-0.486 0.5-0.5zM5.543 6.625l0.504-0.504 0.486 0.486-0.503 0.503-0.487-0.485zM6.108 6.060l0.499-0.5 0.486 0.486-0.499 0.5-0.486-0.486zM6.668 5.5l0.479-0.478 0.485 0.485-0.478 0.479-0.486-0.486zM7.71 5.586l0.464 0.464-0.478 0.478-0.465-0.465 0.479-0.477zM7.769 5.526l0.507-0.506 0.464 0.465-0.507 0.506-0.464-0.465zM7.691 5.449l-0.486-0.486 0.507-0.506 0.485 0.485-0.506 0.507zM7.689 4.32l-0.478-0.478 0.506-0.504 0.478 0.477-0.506 0.505zM7.128 3.759l-0.48-0.48 0.506-0.505 0.479 0.479-0.505 0.506zM6.562 3.193l-0.476-0.476 0.506-0.505 0.476 0.477-0.506 0.504zM6.003 2.634l-0.455-0.455 0.505-0.505 0.455 0.455-0.505 0.505zM5.945 2.69l-0.506 0.507-0.455-0.455 0.506-0.506 0.455 0.454zM4.902 2.66l-0.483-0.483 0.506-0.506 0.483 0.482-0.506 0.507zM4.843 2.719l-0.479 0.478-0.482-0.483 0.478-0.478 0.483 0.483zM3.802 2.634l-0.484-0.484 0.478-0.478 0.484 0.484-0.478 0.478zM3.742 2.693l-0.501 0.501-0.482-0.484 0.499-0.5 0.484 0.483zM3.181 3.255l-0.504 0.504-0.483-0.484 0.503-0.504 0.484 0.484zM2.617 3.819l-0.501 0.501-0.483-0.484 0.5-0.5 0.484 0.483zM2.060 4.377l-0.509 0.509-0.484-0.485 0.508-0.508 0.485 0.484zM2.139 4.457l0.483 0.483-0.508 0.508-0.483-0.483 0.508-0.508zM2.141 5.586l0.455 0.455-0.486 0.485-0.455-0.455 0.486-0.485zM2.679 6.124l0.477 0.478-0.486 0.484-0.477-0.476 0.486-0.486zM3.24 6.686l0.479 0.48-0.485 0.484-0.479-0.479 0.485-0.485zM3.804 7.25l0.479 0.478-0.487 0.485-0.477-0.478 0.485-0.485zM3.859 7.193l0.508-0.508 0.479 0.479-0.508 0.508-0.479-0.479zM4.925 7.243l0.486 0.486-0.508 0.508-0.486-0.486 0.508-0.508zM5.488 7.807l0.465 0.465-0.507 0.507-0.466-0.466 0.508-0.506zM5.546 7.749l0.5-0.501 0.465 0.466-0.5 0.5-0.465-0.465zM6.106 7.188l0.504-0.503 0.465 0.465-0.503 0.502-0.466-0.464zM6.672 6.623l0.499-0.5 0.466 0.466-0.5 0.499-0.465-0.465zM7.705 6.656l0.74 0.741c-0.123 0.202-0.269 0.389-0.438 0.563l-0.803-0.804 0.501-0.5zM7.764 6.597l0.479-0.479 0.539 0.54c-0.074 0.232-0.171 0.453-0.293 0.663l-0.725-0.724zM8.301 6.059l0.507-0.506 0.141 0.141c-0.012 0.298-0.058 0.592-0.138 0.873l-0.51-0.508zM8.942 5.282l-0.145 0.146-0.465-0.465 0.48-0.48c0.070 0.265 0.114 0.533 0.13 0.799zM8.255 4.886l-0.486-0.487 0.506-0.505 0.485 0.486-0.505 0.506zM8.75 4.267l-0.425-0.424 0.183-0.182c0.096 0.198 0.178 0.401 0.242 0.606zM8.455 3.554l-0.209 0.21-0.477-0.479 0.323-0.324c0.137 0.192 0.259 0.391 0.363 0.593zM8.021 2.864l-0.336 0.337-0.48-0.479 0.371-0.371c0.162 0.164 0.31 0.335 0.445 0.513zM7.488 2.268l-0.368 0.369-0.477-0.477 0.325-0.326c0.18 0.131 0.353 0.275 0.52 0.434zM6.871 1.766l-0.311 0.311-0.456-0.455 0.193-0.192c0.195 0.097 0.388 0.209 0.574 0.336zM6.186 1.376l-0.164 0.164-0.37-0.37c0.181 0.058 0.359 0.125 0.534 0.206zM5.505 1.126l0.466 0.466-0.505 0.505-0.484-0.484 0.495-0.494c0.009 0.002 0.018 0.005 0.028 0.007zM4.498 0.971c0.282 0.008 0.568 0.047 0.852 0.115l-0.447 0.448-0.484-0.484 0.079-0.079zM4.846 1.591l-0.506 0.507-0.485-0.485 0.506-0.506 0.485 0.484zM4.355 0.97l-0.008 0.009-0.008-0.009c0.006 0 0.012 0 0.016 0zM4.226 0.972l0.064 0.063-0.506 0.506-0.431-0.431c0.281-0.082 0.574-0.127 0.873-0.138zM3.262 1.138l0.463 0.462-0.479 0.478-0.648-0.648c0.21-0.121 0.432-0.218 0.664-0.292zM2.522 1.474l0.664 0.664-0.5 0.501-0.726-0.727c0.173-0.169 0.361-0.315 0.562-0.438zM1.898 1.974l0.727 0.726-0.504 0.503-0.664-0.665c0.124-0.201 0.272-0.391 0.441-0.564zM1.412 2.615l0.649 0.647-0.5 0.503-0.451-0.452c0.075-0.243 0.175-0.477 0.302-0.698zM1.084 3.402l0.419 0.419-0.508 0.508-0.042-0.042c0.008-0.303 0.052-0.599 0.131-0.885zM0.953 4.515l0.059-0.057 0.483 0.482-0.426 0.427c-0.069-0.284-0.107-0.569-0.116-0.852zM1.102 5.494l0.473-0.474 0.484 0.483-0.486 0.486-0.463-0.463c-0.002-0.010-0.006-0.021-0.008-0.032zM1.15 5.664l0.374 0.374-0.165 0.164c-0.082-0.176-0.15-0.355-0.209-0.538zM1.413 6.313l0.193-0.193 0.455 0.455-0.312 0.313c-0.127-0.186-0.238-0.379-0.336-0.575zM1.817 6.985l0.327-0.327 0.477 0.477-0.371 0.37c-0.157-0.166-0.302-0.339-0.433-0.52zM2.334 7.592l0.372-0.372 0.48 0.48-0.338 0.337c-0.179-0.134-0.351-0.282-0.514-0.445zM2.944 8.109l0.326-0.326 0.479 0.479-0.213 0.211c-0.202-0.105-0.4-0.227-0.592-0.364zM3.644 8.525l0.184-0.185 0.428 0.428c-0.207-0.065-0.412-0.147-0.612-0.243zM3.876 8.293l0.485-0.486 0.486 0.486-0.486 0.485-0.485-0.485zM5.284 8.941c-0.252-0.031-0.41-0.040-0.434-0.042l-0.001 0.012c-0.128-0.020-0.256-0.049-0.383-0.081l0.458-0.46 0.466 0.465-0.106 0.106zM5.487 8.968c-0.027-0.004-0.055-0.008-0.083-0.012l0.054-0.054 0.063 0.065c-0.010 0.001-0.022 0.001-0.034 0.001zM5.633 8.967l-0.12-0.119 0.509-0.509 0.496 0.497c-0.286 0.078-0.583 0.123-0.885 0.131zM6.605 8.81l-0.527-0.528 0.501-0.501 0.725 0.726c-0.22 0.127-0.454 0.227-0.699 0.303zM6.64 7.721l0.504-0.504 0.803 0.804c-0.176 0.169-0.364 0.317-0.566 0.441l-0.741-0.741zM10.323 10.903c-0.335-0.233-0.681-0.463-1.028-0.672-0.585-0.355-1.212-0.615-1.803-0.806 0.407-0.198 0.786-0.463 1.119-0.797 0.346-0.345 0.616-0.739 0.816-1.163 0.192 0.597 0.454 1.229 0.813 1.821 0.209 0.347 0.438 0.694 0.671 1.028l-0.588 0.589z" fill="#444444"></path>
</svg>
