<?xml version="1.0" encoding="utf-8"?>
<!-- Generated by IcoMoon.io -->
<!DOCTYPE svg PUBLIC "-//W3C//DTD SVG 1.1//EN" "http://www.w3.org/Graphics/SVG/1.1/DTD/svg11.dtd">
<svg version="1.1" xmlns="http://www.w3.org/2000/svg" xmlns:xlink="http://www.w3.org/1999/xlink" width="16" height="16" viewBox="0 0 16 16">
<path d="M4.664 5.54l-1.766 1.726 4.557 4.665 8.477-7.99-1.694-1.797-6.711 6.325z" fill="#444444"></path>
<path d="M14.094 12.301c0 0.644-0.523 1.166-1.166 1.166h-10.914c-0.643 0-1.166-0.522-1.166-1.166v-8.601c0-0.644 0.523-1.166 1.166-1.166h9.711l0.826-0.781h-10.537c-1.072 0-1.945 0.873-1.945 1.947v8.601c0 1.073 0.873 1.946 1.945 1.946h10.914c1.074 0 1.947-0.873 1.947-1.946v-5.468l-0.781 0.714v4.754z" fill="#444444"></path>
</svg>
