<?xml version="1.0" encoding="utf-8"?>
<!-- Generated by IcoMoon.io -->
<!DOCTYPE svg PUBLIC "-//W3C//DTD SVG 1.1//EN" "http://www.w3.org/Graphics/SVG/1.1/DTD/svg11.dtd">
<svg version="1.1" xmlns="http://www.w3.org/2000/svg" xmlns:xlink="http://www.w3.org/1999/xlink" width="16" height="16" viewBox="0 0 16 16">
<path d="M15.896 13.861l-7.648-12.709c-0.068-0.119-0.197-0.199-0.345-0.199-0.23 0-0.235 0-0.676 0.741-0.206 0.348-0.5 0.845-0.852 1.442-0.701 1.192-1.633 2.782-2.562 4.372-1.858 3.179-3.712 6.358-3.712 6.358-0.072 0.123-0.072 0.274-0.002 0.398 0.071 0.124 0.203 0.2 0.346 0.2h15.109c0.144 0 0.275-0.077 0.347-0.203 0.071-0.123 0.069-0.277-0.005-0.4zM1.138 13.669c2.441-4.188 5.723-9.805 6.762-11.551l6.95 11.551h-13.712z" fill="#444444"></path>
<path d="M7.115 5.985c0 0.026 0 0.052 0.002 0.077l0.175 3.724c0 0.378 0.306 0.685 0.685 0.685 0.378 0 0.685-0.307 0.685-0.685l0.173-3.724c0.003-0.025 0.004-0.051 0.004-0.077 0-0.476-0.386-0.861-0.861-0.861-0.478 0-0.863 0.386-0.863 0.861z" fill="#444444"></path>
<path d="M8.848 11.716c0 0.481-0.39 0.871-0.871 0.871s-0.871-0.39-0.871-0.871c0-0.481 0.39-0.871 0.871-0.871s0.871 0.39 0.871 0.871z" fill="#444444"></path>
</svg>
