<?xml version="1.0" encoding="utf-8"?>
<!-- Generator: Adobe Illustrator 16.0.0, SVG Export Plug-In . SVG Version: 6.00 Build 0)  -->
<!DOCTYPE svg PUBLIC "-//W3C//DTD SVG 1.1//EN" "http://www.w3.org/Graphics/SVG/1.1/DTD/svg11.dtd">
<svg version="1.1" id="Layer_1" xmlns="http://www.w3.org/2000/svg" xmlns:xlink="http://www.w3.org/1999/xlink" x="0px" y="0px"
	 width="187.31px" height="187.87px" viewBox="0 0 187.31 187.87" enable-background="new 0 0 187.31 187.87" xml:space="preserve">
<g>
	<path fill="#1BACE3" d="M28.806,73.176c-1.564,0-3.134,0.133-4.665,0.396c-3.175,0.547-6.17,1.634-8.931,3.229
		c1.121-5.02,2.717-9.927,4.797-14.688c1.289-2.95-0.058-6.386-3.008-7.675c-2.95-1.287-6.386,0.059-7.675,3.008
		C4.202,69.172,1.605,81.655,1.605,94.55c0,1.76,0.052,2.998,0.161,5.069c0.024,0.445,0.134,1.033,0.171,1.554
		c0.861,13.782,12.609,24.735,26.869,24.735c14.818,0,26.874-11.828,26.874-26.365C55.68,85.004,43.625,73.176,28.806,73.176z
		 M28.806,114.504c-8.297,0-15.087-6.352-15.451-14.291c-0.022-0.348-0.022-0.513-0.022-0.861c0-0.325,0.016-0.523,0.036-0.731
		c0.111-1.799,0.548-3.538,1.308-5.181c1.167-2.52,3.031-4.681,5.394-6.248c1.819-1.207,3.839-2.008,6.003-2.379
		c0.895-0.154,1.813-0.232,2.731-0.232c8.53,0,15.469,6.712,15.469,14.963C44.275,107.793,37.336,114.504,28.806,114.504z"/>
	<g>
		<path fill="#1BACE3" d="M71.021,73.544c-3.249,0-5.73,2.579-5.73,5.829v39.938c0,3.251,2.578,5.736,5.73,5.736
			c3.251,0,5.831-2.485,5.831-5.736V79.373C76.852,76.123,74.272,73.544,71.021,73.544z"/>
		<path fill="#1BACE3" d="M114,96l13.376-12.33c1.625-1.526,2.583-2.961,2.583-4.87c0-2.774-2.008-5.256-5.066-5.256
			c-2.006,0-3.442,0.954-4.968,2.481L98.233,97.337V60.068c0-3.149-2.58-5.729-5.827-5.729c-3.253,0-5.735,2.58-5.735,5.729v59.243
			c0,3.251,2.58,5.736,5.735,5.736c3.247,0,5.827-2.485,5.827-5.736v-8.789l7.645-7.263l14.428,19.21
			c1.433,1.81,2.771,2.578,5.066,2.578c2.961,0,5.444-2.104,5.444-5.257c0-1.338-0.477-2.388-1.527-3.823L114,96z"/>
		<path fill="#1BACE3" d="M159.567,73.064c-15.479,0-26.948,11.943-26.948,26.374v0.19c0,14.334,11.372,26.087,26.757,26.087
			c15.577,0,27.042-11.946,27.042-26.277v-0.192C186.418,84.818,175.046,73.064,159.567,73.064z M174.855,99.629
			c0,8.695-5.925,15.957-15.288,15.957c-8.983,0-15.386-7.357-15.386-16.147v-0.192c0-8.791,5.925-16.055,15.194-16.055
			c9.076,0,15.479,7.361,15.479,16.247V99.629z"/>
		<circle fill="#1BACE3" cx="71.076" cy="60.292" r="6.091"/>
	</g>
	<g>
		<path fill="#1BACE3" d="M96.134,13.483V1.826c-0.591-0.012-1.18-0.033-1.772-0.033c-14.651,0-28.669,3.318-41.667,9.863
			c-12.39,6.24-23.421,15.365-31.902,26.391c-1.962,2.553-1.485,6.212,1.067,8.175c2.552,1.962,6.211,1.485,8.174-1.067
			C45.53,25.006,68.977,13.451,94.362,13.451c0.594,0,1.186,0.02,1.778,0.032C96.138,13.483,96.136,13.483,96.134,13.483z"/>
	</g>
	<path fill="#1BACE3" d="M172.454,132.712c-2.781-1.621-6.35-0.681-7.971,2.102c-7.021,12.049-17.09,22.151-29.115,29.214
		c-12.382,7.272-26.562,11.115-41.006,11.115c0.591,0,1.181-0.016,1.772-0.028v11.657c15.905-0.304,31.476-4.667,45.138-12.691
		c13.748-8.074,25.257-19.623,33.284-33.397C176.176,137.901,175.235,134.333,172.454,132.712z"/>
	<path fill="#0A5B7A" d="M180.13,59.167c-6.926-16.771-18.538-31.057-33.582-41.312C131.62,7.68,114.224,2.148,96.134,1.81v11.674
		c15.736,0.338,30.863,5.153,43.848,14.005c13.161,8.971,23.318,21.464,29.374,36.128c0.927,2.248,3.099,3.606,5.389,3.606
		c0.741,0,1.495-0.143,2.223-0.443C179.942,65.551,181.358,62.143,180.13,59.167z"/>
	<path fill="#0A5B7A" d="M96.134,175.114c-0.591,0.013-1.181,0.028-1.772,0.028c-14.43,0-28.597-3.836-40.969-11.093
		c-12.016-7.049-22.082-17.133-29.109-29.162c-1.625-2.779-5.194-3.717-7.973-2.093c-2.78,1.624-3.717,5.193-2.093,7.974
		c8.033,13.751,19.54,25.278,33.276,33.336c14.159,8.307,30.366,12.696,46.868,12.696c0.591,0,1.181-0.019,1.772-0.029V175.114z"/>
</g>
<g>
	<path fill="#0A5B7A" d="M95.143,157.702c-0.027-0.611,0.418-1.117,1.029-1.146c0.611-0.027,1.118,0.437,1.146,1.047l0.044,0.971
		c0.449-1.209,1.343-2.15,2.296-2.194c0.684-0.03,1.1,0.401,1.128,1.03c0.026,0.575-0.334,0.97-0.815,1.082
		c-1.533,0.34-2.541,1.574-2.438,3.821l0.126,2.805c0.027,0.593-0.436,1.101-1.047,1.128c-0.594,0.027-1.1-0.417-1.127-1.029
		L95.143,157.702z"/>
	<path fill="#0A5B7A" d="M101.492,153.725c-0.088-0.643,0.392-1.126,1.087-1.221c0.696-0.096,1.287,0.241,1.375,0.883l0.015,0.107
		c0.088,0.643-0.389,1.145-1.084,1.239c-0.695,0.096-1.289-0.26-1.378-0.901L101.492,153.725z M102.135,157.217
		c-0.083-0.606,0.315-1.151,0.922-1.235c0.606-0.083,1.153,0.334,1.236,0.94l1.022,7.456c0.083,0.606-0.335,1.137-0.94,1.22
		c-0.589,0.081-1.135-0.317-1.218-0.924L102.135,157.217z"/>
	<path fill="#0A5B7A" d="M117.54,161.531c0.159,0.591-0.188,1.169-0.763,1.323c-0.59,0.16-1.181-0.166-1.341-0.757l-0.153-0.573
		c-0.42,1.139-1.17,2.161-2.664,2.563c-2.155,0.581-4.721-0.572-5.541-3.613l-0.009-0.034c-0.821-3.041,0.783-5.318,2.972-5.908
		c1.512-0.407,2.67,0.081,3.564,0.771l-1.072-3.979c-0.161-0.591,0.188-1.168,0.76-1.324c0.592-0.158,1.183,0.167,1.342,0.758
		L117.54,161.531z M109.188,159.869l0.009,0.035c0.479,1.771,2.009,2.607,3.434,2.224c1.407-0.38,2.34-1.897,1.867-3.653
		l-0.01-0.035c-0.479-1.771-2.043-2.599-3.451-2.219C109.596,156.609,108.696,158.044,109.188,159.869z"/>
	<path fill="#0A5B7A" d="M125.196,159.578c-2.497,1.158-5.264,0.238-6.497-2.423l-0.016-0.033c-1.142-2.465-0.333-5.299,2.133-6.441
		c2.743-1.271,5.143,0.354,6.064,2.346c0.258,0.556,0.016,1.144-0.49,1.378l-5.406,2.504c0.863,1.307,2.223,1.629,3.496,1.039
		c0.833-0.386,1.35-0.981,1.693-1.696c0.094-0.183,0.194-0.309,0.423-0.415c0.441-0.204,0.942-0.02,1.155,0.438
		c0.112,0.245,0.097,0.51,0.018,0.726C127.311,158.064,126.535,158.958,125.196,159.578z M124.789,153.561
		c-0.721-1.213-1.934-1.861-3.24-1.256c-1.208,0.56-1.626,1.884-1.186,3.306L124.789,153.561z"/>
	<path fill="#0A5B7A" d="M132.933,149.71l-0.022-0.028c-1.705-2.117-1.435-5.224,0.836-7.054c2.271-1.828,5.328-1.447,7.033,0.669
		l0.021,0.028c1.694,2.102,1.424,5.209-0.86,7.05C137.684,152.192,134.626,151.812,132.933,149.71z M139.127,144.719l-0.021-0.028
		c-1.05-1.303-2.859-1.627-4.19-0.554c-1.36,1.096-1.37,2.861-0.331,4.151l0.021,0.027c1.039,1.289,2.848,1.612,4.166,0.551
		C140.145,147.76,140.155,145.995,139.127,144.719z"/>
	<path fill="#0A5B7A" d="M139.543,139.216c-0.459-0.405-0.514-1.078-0.108-1.537s1.091-0.502,1.551-0.097l0.351,0.31
		c-0.256-1.043-0.252-2.217,0.725-3.323c1.419-1.606,3.32-1.585,4.969-0.131l3.806,3.361c0.459,0.405,0.5,1.066,0.095,1.525
		c-0.404,0.459-1.078,0.514-1.535,0.108l-3.309-2.92c-1.107-0.978-2.23-0.984-3.089-0.013c-0.835,0.945-0.757,2.19,0.351,3.169
		l3.281,2.896c0.458,0.405,0.486,1.08,0.083,1.539c-0.394,0.445-1.067,0.5-1.526,0.094L139.543,139.216z"/>
</g>
</svg>
